{
  "products": [
    {
      "id": 1,
      "reference_id": "123456",
      "title": "T Shirt",
      "unit_price": "120",
      "image_url": "https://imgprd19.hobbylobby.com/9/5f/26/95f264323ae49e65b2a53a909fcd7d9ee659f3c7/350Wx350H-422519-0320.jpg",
      "product_url": "https://scstylecaster.files.wordpress.com/2018/11/old-school-products.jpg",
      "description": "some detail about the product"
    },
    {
      "id": 2,
      "reference_id": "654321",
      "title": "Jacket",
      "unit_price": "500",
      "image_url": "https://5.imimg.com/data5/NM/LX/MY-42532489/mens-black-jacket-500x500.jpg",
      "product_url": "https://scstylecaster.files.wordpress.com/2018/11/old-school-products.jpg",
      "description": "some detail about the product"
    },
    {
      "id": 3,
      "reference_id": "231231",
      "title": "Pen",
      "unit_price": "10",
      "image_url": "https://www.mugart.pk/wp-content/uploads/2018/12/4-min-2.jpg",
      "product_url": "https://scstylecaster.files.wordpress.com/2018/11/old-school-products.jpg",
      "description": "some detail about the product"
    }
  ]
}